{
  "Agency": {
	"Id": 774,
	"ProducerId": 410,
	"State": 44
  },
  "Drivers": [
	{
	  "CourseDiscount": {},
	  "Employment": {},
	  "Filing": {},
	  "License": {
		"Months36": 1,
		"State": 44,
		"Type": 1044
	  },
	  "MaritalStatus": 1,
	  "Name": {
		"DateOfBirth": "1990-08-07T05:00:00Z",
		"First": "Teyara",
		"Gender": 1,
		"Last": "Jackson"
	  },
	  "Violations": []
	}
  ],
  "Policy": {
	"Documents": [],
	"Modifiers": {
	  "DirectBillDiscount": 2,
	  "HomeownersDiscount": 2,
	  "ReceiveElectronicDocuments": 2,
	  "TransferDiscount": {
		"Flag": 2
	  }
	},
	"PaymentInfo": {
	  "Sr22": 2
	},
	"Term": 6,
	"Type": 1,
	"UnderwritingResponses": []
  },
  "PolicyHolder": {
	"Address": {
	  "City": "oak park",
	  "County": "DALLAS",
	  "State": 44,
	  "Street": "123 gg street",
	  "Zip": "75001"
	},
	"Name": {
	  "DateOfBirth": "1990-08-07T05:00:00Z",
	  "First": "Teyara",
	  "Gender": 1,
	  "Last": "Jackson"
	},
	"Phones": []
  },
  "Vehicles": [
	{
	  "BodyType": {
		"Description": "4 Door Wagon - Two Wheel Drive",
		"Id": "17"
	  },
	  "Coverages": {},
	  "Make": {
		"Description": "Fiat",
		"Id": "fiat"
	  },
	  "Model": {
		"Description": "500L LOUNGE",
		"Id": "500l lounge"
	  },
	  "PrimaryUse": 1,
	  "Symbol": {
		"Description": "ZFB&FACH&L (28) (23) (00)",
		"Id": "zfb&fach&l (28) (23) (00)"
	  },
	  "Year": 2020
	}
  ]
}
