{
  "iisSettings": {
	"windowsAuthentication": false,
	"anonymousAuthentication": true,
	"iisExpress": {
	  "applicationUrl": "http://localhost:1121",
	  "sslPort": 44300
	}
  },
  "profiles": {
	"IIS Express": {
	  "commandName": "IISExpress",
	  "launchBrowser": true,
	  "launchUrl": "Index.html"
	},
	"ConsumerPortal": {
	  "commandName": "Project",
	  "launchBrowser": true,
	  "applicationUrl": "#{applicationUrl}",
	  "dotnetRunMessages": "true"
	}
  }
}
