<svg xmlns="http://www.w3.org/2000/svg" xmlns:xlink="http://www.w3.org/1999/xlink" viewBox="0 0 108.24 112.08">
	<defs>
		<style>
			.cls-1 {
				isolation: isolate;
			}
			.cls-2 {
				fill: #fff;
			}
			.cls-3 {
				opacity: 0.75;
			}
			.cls-3, .cls-7 {
				mix-blend-mode: multiply;
			}
			.cls-4 {
				fill: url(#linear-gradient);
			}
			.cls-5 {
				fill: #7c2529;
			}
			.cls-6 {
				fill: url(#radial-gradient);
			}
			.cls-7 {
				opacity: 0.57;
			}
			.cls-8 {
				fill: url(#linear-gradient-2);
			}
			.cls-9 {
				fill: #707372;
			}
			.cls-10 {
				fill: url(#radial-gradient-2);
			}
		</style>
		<linearGradient id="linear-gradient" x1="53.79" y1="91" x2="53.79" y2="47.5" gradientUnits="userSpaceOnUse">
			<stop offset="0" stop-color="#af272f"/>
			<stop offset="1" stop-color="#ee2737"/>
		</linearGradient>
		<radialGradient id="radial-gradient" cx="53.67" cy="4.75" r="71.33" gradientUnits="userSpaceOnUse">
			<stop offset="0" stop-color="#ee2737"/>
			<stop offset="0.28" stop-color="#d42734"/>
			<stop offset="0.64" stop-color="#b92730"/>
			<stop offset="0.85" stop-color="#af272f"/>
		</radialGradient>
		<linearGradient id="linear-gradient-2" x1="60.85" y1="1.97" x2="33.02" y2="74.8" gradientUnits="userSpaceOnUse">
			<stop offset="0" stop-color="#707372"/>
			<stop offset="0.23" stop-color="#e5e1e6"/>
			<stop offset="0.48" stop-color="#707372"/>
			<stop offset="0.82" stop-color="#e5e1e6"/>
			<stop offset="1" stop-color="#9ea2a2"/>
		</linearGradient>
		<radialGradient id="radial-gradient-2" cx="59.25" cy="45.25" r="30.58" gradientUnits="userSpaceOnUse">
			<stop offset="0" stop-color="#707372"/>
			<stop offset="1" stop-color="#25282a"/>
		</radialGradient>
		<filter id="dropshadow" height="130%">
			<feGaussianBlur in="SourceAlpha" stdDeviation="1.5"/> 
			<feOffset dx="2" dy="2" result="offsetblur"/>
			<feComponentTransfer>
				<feFuncA type="linear" slope="0.75"/>
			</feComponentTransfer>
			<feMerge> 
				<feMergeNode/>
				<feMergeNode in="SourceGraphic"/> 
			</feMerge>
		</filter>
	</defs>
	<title>FalconShield-RGB-Expanded</title>
	<g id="TheShield" data-name="The Shield!" class="cls-1">
		<path id="BGFill" class="cls-2" d="M101.24,15.32A19.06,19.06,0,0,0,98,13.14c-10.06-6-26.11-9.89-44.19-9.89S19.67,7.13,9.6,13.14c-1.54,1-2.48,1.68-3.27,2.19a26.81,26.81,0,0,0-3.45,3.05C4.35,32.72,12.33,84,53.79,109.24c41.46-25.2,49.44-76.52,50.9-90.86A26.81,26.81,0,0,0,101.24,15.32Z" transform="translate(-0.72 -1.25)"/>
		<g id="RedShieldThing">
			<path filter="url(#dropshadow)" class="cls-4" d="M101.24,15.32c-.95,19.06-10.38,63.93-47.45,87.44C16.72,79.26,7.28,34.39,6.34,15.32a26.81,26.81,0,0,0-3.45,3.05C4.35,32.72,12.33,84,53.79,109.24c41.46-25.2,49.44-76.52,50.9-90.86A26.81,26.81,0,0,0,101.24,15.32Z" transform="translate(-0.72 -1.25)"/>
			<path class="cls-5" d="M53.79,108.07C13.86,83.42,5.56,34.09,3.93,18.74Q4.64,18,5.46,17.3s.56-.46.95-.72q0-.65-.07-1.26a26.81,26.81,0,0,0-3.45,3.05C4.35,32.72,12.33,84,53.79,109.24c.28-.17.71-.43,1-.6C54.24,108.36,53.79,108.07,53.79,108.07Z" transform="translate(-0.72 -1.25)"/>
			<path class="cls-5" d="M102.12,17.3s.05-.9,0-1.28c-.29-.24-.59-.47-.89-.7-.95,19.06-10.38,63.93-47.45,87.44l.92.6C95,77.5,101.21,28.83,102.12,17.3Z" transform="translate(-0.72 -1.25)"/>
		</g>
		<path id="ShieldBG" class="cls-6" d="M55.13,8.44c-16.3,0-30.78,3.54-39.85,9,.18,3,3.28,51.79,39.85,74.1C91.7,69.23,94.81,20.41,95,17.45,85.91,12,71.44,8.44,55.13,8.44Z" transform="translate(-0.72 -1.25)"/>
		<g id="ShieldSilver">
			<path id="Silver" filter="url(#dropshadow)" class="cls-8" d="M53.79,3.25c-18.08,0-34.12,3.88-44.19,9.89C9.8,16.4,13.24,70,53.79,94.52,94.34,70,97.78,16.4,98,13.14,87.91,7.13,71.87,3.25,53.79,3.25Zm1.34,88.29C18.56,69.23,15.46,20.41,15.28,17.45c9.08-5.46,23.55-9,39.85-9S85.91,12,95,17.45C94.81,20.41,91.7,69.23,55.13,91.54Z" transform="translate(-0.72 -1.25)"/>
			<path id="WhiteHighlight" class="cls-2" d="M95.5,16.59c-9.65-5.81-24.37-9.14-40.37-9.14s-30.72,3.33-40.37,9.14l-.52.31,0,.6c.32,5.35,4.21,52.86,40.33,74.89l.44.26.52-.32c35.21-22.5,39.88-69.6,40.28-74.91l0-.6Zm-40.37,75C18.56,69.23,15.46,20.41,15.28,17.45c9.08-5.46,23.55-9,39.85-9S85.91,12,95,17.45C94.81,20.41,91.7,69.23,55.13,91.54Z" transform="translate(-0.72 -1.25)"/>
			<path id="SilverShadow" class="cls-9" d="M10.33,13.52c0-.41,0-.8,0-.8l-.71.42C9.8,16.4,13.24,70,53.79,94.52l.72-.44a5.15,5.15,0,0,1-.72-.38C15.7,70.39,10.85,21,10.33,13.52Z" transform="translate(-0.72 -1.25)"/>
		</g>
		<g id="TheBird">
			<path class="cls-10" d="M46.64,75.27a55.55,55.55,0,0,1,.3-9L43,73.46s-1.3-5.22,2-8.09l-8.5,6.8a11.54,11.54,0,0,1,6.6-8.69l-9.58,5.59s1.25-6.61,10-10L32.15,65.18S34.5,56.88,47.81,57c-4.43,0-6.64-5.78-5.43-8.66-3-1.5-5.92-3.16-7.21-10.21,1.09,2.08,8.21,5.83,13.46,3.33C41.88,38.75,39.6,37,38,30.06c1.51,3.07,7.14,4.82,11,3.94-7.25-4-6.73-7.92-7.8-13,.93,3,2.8,5.65,5.05,6.65-2.54-3.6-1.83-9.54-.41-13.51,1.79,4.76,5,25,14.41,29.63-.62-4.25-1.5-19.16,7.87-28.64,0,0-9.51,18.8-5.17,36.85l.06.24.11.43s12.75.25,14.5,11.25c-2.87-2.62-9.58-5.43-14.29-1.29a25.15,25.15,0,0,0,2.49,5.5s5.51-1.5,6.05,2.92c-2.75-1.5-4.79-1.8-7.63-.38,1.51-.12,5.92.72,5,4.4-.87-2.85-4.79-3.64-5.41-2.27.88,1.38,1.13,2.42,2.57,2.52-2.07.48-5.57.1-4.94-4.15-3.37-3.12-7.62-7-7.62-7S46.66,69.55,46.64,75.27Z" transform="translate(-0.72 -1.25)"/>
			<g>
				<path class="cls-2" d="M50.18,11.14s2.36,22.54,10.29,32.71C56.51,41.78,47.42,35.29,50.18,11.14Z" transform="translate(-0.72 -1.25)"/>
				<path class="cls-2" d="M49.48,26.94s-5.9-3.59-3.64-12.83Z" transform="translate(-0.72 -1.25)"/>
				<path class="cls-2" d="M41.2,21s-2.57,13.88,7.28,12.81C43.94,30.58,42.06,26.12,41.2,21Z" transform="translate(-0.72 -1.25)"/>
				<path class="cls-2" d="M38,30.06S35.66,44.57,49,41.69C45.94,40,40.48,38.69,38,30.06Z" transform="translate(-0.72 -1.25)"/>
				<path class="cls-2" d="M35.17,38.17S37,53.83,53.44,47.41C46,46.41,38,44.39,35.17,38.17Z" transform="translate(-0.72 -1.25)"/>
				<path class="cls-2" d="M68.12,15.11s-7.38,19.41-4.53,35.71C69,52.5,80.93,54.57,77.7,64.92c-1.16-1.55-3.37-4.53-13.85-2.85a16.14,16.14,0,0,1,12.29-1.16c-1.46-4.2-8.54-7.38-13.84-7.25C60.62,48.1,58.94,27.14,68.12,15.11Z" transform="translate(-0.72 -1.25)"/>
				<path class="cls-2" d="M53.24,65.31s-5.69,4.4-6.6,10c-.92-6,1-8.41,7-13.07,2,1.95,5.09,5.13,8.93,8.93-.13,2.33-.52,4.14,3.88,4.14-1.42,1.42-6.34,1-5-3.23C58.55,69.45,53.24,65.31,53.24,65.31Z" transform="translate(-0.72 -1.25)"/>
				<path class="cls-2" d="M42.5,50.43s-.84,5.87,5.31,6.6C44.37,54.82,42.5,50.43,42.5,50.43Z" transform="translate(-0.72 -1.25)"/>
				<path class="cls-2" d="M43.54,59.1,32.15,65.18S33.83,58.19,43.54,59.1Z" transform="translate(-0.72 -1.25)"/>
				<path class="cls-2" d="M43.15,63.48l-9.58,5.59S35,61.72,43.15,63.48Z" transform="translate(-0.72 -1.25)"/>
				<path class="cls-2" d="M45,65.37l-8.5,6.8S37.74,65.24,45,65.37Z" transform="translate(-0.72 -1.25)"/>
				<path class="cls-2" d="M46.94,66.32,43,73.46S41,68.62,46.94,66.32Z" transform="translate(-0.72 -1.25)"/>
				<path class="cls-2" d="M63.47,63.11a27.39,27.39,0,0,0,2.36,5c2.17-.75,7.22-.57,6.7,4.74a5.84,5.84,0,0,0-8.28-2.2C64,67.33,63.86,66.32,63.47,63.11Z" transform="translate(-0.72 -1.25)"/>
				<path class="cls-2" d="M64.24,71.52s6.08-1.16,5,3.49C68.6,73.76,67.85,72,64.24,71.52Z" transform="translate(-0.72 -1.25)"/>
			</g>
		</g>
	</g>
</svg>
